104	0	7
110	1	7
111	2	7
101	3	7
122	4	7
113	5	7
112	6	7
120	7	7
40	8	7
46	9	7
47	10	7
37	11	7
58	12	7
49	13	7
48	14	7
56	15	7
99	0	6
100	1	6
105	2	6
109	3	6
114	4	6
119	5	6
124	6	6
126	7	6
35	8	6
36	9	6
41	10	6
45	11	6
50	12	6
55	13	6
60	14	6
62	15	6
96	0	5
97	1	5
103	2	5
106	3	5
117	4	5
121	5	5
127	6	5
123	7	5
32	8	5
33	9	5
39	10	5
42	11	5
53	12	5
57	13	5
63	14	5
59	15	5
102	0	4
107	1	4
108	2	4
98	3	4
125	4	4
116	5	4
115	6	4
118	7	4
38	8	4
43	9	4
44	10	4
34	11	4
61	12	4
52	13	4
51	14	4
54	15	4
87	0	3
81	1	3
80	2	3
90	3	3
66	4	3
75	5	3
76	6	3
71	7	3
23	8	3
17	9	3
16	10	3
26	11	3
2	12	3
11	13	3
12	14	3
7	15	3
92	0	2
91	1	2
86	2	2
82	3	2
74	4	2
70	5	2
64	6	2
65	7	2
28	8	2
27	9	2
22	10	2
18	11	2
10	12	2
6	13	2
0	14	2
1	15	2
95	0	1
94	1	1
88	2	1
85	3	1
77	4	1
72	5	1
67	6	1
68	7	1
31	8	1
30	9	1
24	10	1
21	11	1
13	12	1
8	13	1
3	14	1
4	15	1
89	0	0
84	1	0
83	2	0
93	3	0
69	4	0
78	5	0
79	6	0
73	7	0
25	8	0
20	9	0
19	10	0
29	11	0
5	12	0
14	13	0
15	14	0
9	15	0
